Assignment 1 (compilation results)

Student: 004063197 ------- Compilation Successful -------
Student: 004835450 ------- Compilation Successful -------
Student: 004949060 ------- Compilation Successful -------
Student: 005106280 ------- Compilation Successful -------
Student: 005152795 ------- Compilation Successful -------
Student: 005153158 ------- Compilation Successful -------
Student: 005169545 ------- Compilation Successful -------
Student: 005179375 ------- Compilation Successful -------
Student: 104811260 ------- Compilation Successful -------
Student: 104935755 ------- Compilation Successful -------
Student: 104987004 ------- Compilation Successful -------
Student: 105009735 ------- Compilation Successful -------
Student: 105021997 ------- Compilation Successful -------
Student: 105089299 ------- Compilation Successful -------
Student: 105156533 ------- Compilation Successful -------
Student: 105202752 ------- Compilation Successful -------
Student: 105265099 ------- Compilation Successful -------
Student: 205006618 ------- Compilation Successful -------
Student: 205087563 ------- Compilation Successful -------
Student: 205120968 ------- Compilation Successful -------
Student: 205122774 ------- Compilation Successful -------
Student: 205133225 ------- Compilation Successful -------
Student: 205137233 ------- Compilation Successful -------
Student: 205143658 ------- Compilation Successful -------
Student: 205148222 ------- Compilation Successful -------
Student: 205192620 ------- Compilation Successful -------
Student: 304383102 XXXXXXX Compilation Failed XXXXXXXXXXX
Student: 304744081 XXXXXXX Compilation Failed XXXXXXXXXXX
Student: 305021425 ------- Compilation Successful -------
Student: 305107527 ------- Compilation Successful -------
Student: 305141654 ------- Compilation Successful -------
Student: 305275139 ------- Compilation Successful -------
Student: 404746254 ------- Compilation Successful -------
Student: 404996375 ------- Compilation Successful -------
Student: 405002445 ------- Compilation Successful -------
Student: 405012623 ------- Compilation Successful -------
Student: 405122853 ------- Compilation Successful -------
Student: 405124545 ------- Compilation Successful -------
Student: 405128162 ------- Compilation Successful -------
Student: 405140625 ------- Compilation Successful -------
Student: 405157343 ------- Compilation Successful -------
Student: 504750368 ------- Compilation Successful -------
Student: 505091931 ------- Compilation Successful -------
Student: 505155800 ------- Compilation Successful -------
Student: 505185166 ------- Compilation Successful -------
Student: 604507498 ------- Compilation Successful -------
Student: 604913082 ------- Compilation Successful -------
Student: 605134218 ------- Compilation Successful -------
Student: 605135779 ------- Compilation Successful -------
Student: 605154715 XXXXXXX Compilation Failed XXXXXXXXXXX
Student: 605176185 XXXXXXX Compilation Failed XXXXXXXXXXX
Student: 605199361 ------- Compilation Successful -------
Student: 605208822 ------- Compilation Successful -------
Student: 704965867 ------- Compilation Successful -------
Student: 704985554 XXXXXXX Compilation Failed XXXXXXXXXXX
Student: 704998858 ------- Compilation Successful -------
Student: 705001835 ------- Compilation Successful -------
Student: 705113079 ------- Compilation Successful -------
Student: 705114248 ------- Compilation Successful -------
Student: 705189347 ------- Compilation Successful -------
Student: 705203918 ------- Compilation Successful -------
Student: 705212767 ------- Compilation Successful -------
Student: 705215964 ------- Compilation Successful -------
Student: 705216633 ------- Compilation Successful -------
Student: 804767471 XXXXXXX Compilation Failed XXXXXXXXXXX
Student: 804810021 ------- Compilation Successful -------
Student: 804908895 XXXXXXX Compilation Failed XXXXXXXXXXX
Student: 804987680 ------- Compilation Successful -------
Student: 805093900 XXXXXXX Compilation Failed XXXXXXXXXXX
Student: 805101387 ------- Compilation Successful -------
Student: 805183043 ------- Compilation Successful -------
Student: 905031836 ------- Compilation Successful -------
Student: 905100740 ------- Compilation Successful -------
Student: 905159716 ------- Compilation Successful -------
Student: 905181190 ------- Compilation Successful -------
Student: 905184810 ------- Compilation Successful -------
Student: 905200693 ------- Compilation Successful -------
Student: 905213073 ------- Compilation Successful -------
